build/dump.vcd
$date
	Sun Mar 29 16:19:11 2026
$end
$version
	Icarus Verilog
$end
$timescale
	1s
$end
$scope module imuldiv_MulDivReqMsgToBits $end
$var wire 32 ! a [31:0] $end
$var wire 32 " b [31:0] $end
$var wire 3 # func [2:0] $end
$var wire 67 $ bits [66:0] $end
$upscope $end
$scope module imuldiv_MulDivReqMsgToStr $end
$var wire 67 % msg [66:0] $end
$var wire 3 & func [2:0] $end
$var wire 32 ' b [31:0] $end
$var wire 32 ( a [31:0] $end
$var parameter 3 ) div $end
$var parameter 3 * divu $end
$var parameter 3 + mul $end
$var parameter 3 , rem $end
$var parameter 3 - remu $end
$var reg 160 . full_str [159:0] $end
$var reg 16 / tiny_str [15:0] $end
$upscope $end
$scope module tester $end
$var wire 1 0 t0_done $end
$var reg 1 1 clk $end
$var reg 1024 2 next_test_case_num [1023:0] $end
$var reg 1 3 t0_reset $end
$var reg 1024 4 test_case_num [1023:0] $end
$var reg 2 5 verbose [1:0] $end
$scope module t0 $end
$var wire 1 1 clk $end
$var wire 1 0 done $end
$var wire 1 3 reset $end
$var wire 1 6 sink_Mhl $end
$var wire 1 7 sink_X2hl $end
$var wire 1 8 sink_X3hl $end
$var wire 1 9 sink_Xhl $end
$var wire 1 : src_val $end
$var wire 1 ; src_rdy $end
$var wire 3 < src_msg_fn [2:0] $end
$var wire 32 = src_msg_b [31:0] $end
$var wire 32 > src_msg_a [31:0] $end
$var wire 67 ? src_msg [66:0] $end
$var wire 1 @ src_done $end
$var wire 1 A sink_val $end
$var wire 1 B sink_rdy $end
$var wire 64 C sink_msg [63:0] $end
$var wire 1 D sink_done $end
$scope module msgfrombits $end
$var wire 3 E func [2:0] $end
$var wire 67 F bits [66:0] $end
$var wire 32 G b [31:0] $end
$var wire 32 H a [31:0] $end
$upscope $end
$scope module muldiv $end
$var wire 1 1 clk $end
$var wire 1 I muldivreq_go $end
$var wire 32 J muldivreq_msg_a [31:0] $end
$var wire 32 K muldivreq_msg_b [31:0] $end
$var wire 3 L muldivreq_msg_fn [2:0] $end
$var wire 1 A muldivresp_val $end
$var wire 1 3 reset $end
$var wire 1 M sign $end
$var wire 1 N stall $end
$var wire 1 6 stall_Mhl $end
$var wire 1 7 stall_X2hl $end
$var wire 1 8 stall_X3hl $end
$var wire 1 9 stall_Xhl $end
$var wire 1 O val2_next $end
$var wire 1 P val1_next $end
$var wire 64 Q result0 [63:0] $end
$var wire 32 R remainderu [31:0] $end
$var wire 32 S remainder_raw [31:0] $end
$var wire 32 T remainder [31:0] $end
$var wire 32 U quotientu [31:0] $end
$var wire 32 V quotient_raw [31:0] $end
$var wire 32 W quotient [31:0] $end
$var wire 64 X productu [63:0] $end
$var wire 64 Y productsu_raw [63:0] $end
$var wire 64 Z productsu [63:0] $end
$var wire 64 [ product_raw [63:0] $end
$var wire 64 \ product [63:0] $end
$var wire 1 B muldivresp_rdy $end
$var wire 64 ] muldivresp_msg_result [63:0] $end
$var wire 1 : muldivreq_val $end
$var wire 1 ; muldivreq_rdy $end
$var wire 32 ^ b_unsign [31:0] $end
$var wire 32 _ a_unsign [31:0] $end
$var reg 32 ` a_reg [31:0] $end
$var reg 32 a b_reg [31:0] $end
$var reg 3 b fn_reg [2:0] $end
$var reg 64 c result1_reg [63:0] $end
$var reg 64 d result2_reg [63:0] $end
$var reg 64 e result3_reg [63:0] $end
$var reg 1 f val0_reg $end
$var reg 1 g val1_reg $end
$var reg 1 h val2_reg $end
$var reg 1 i val3_reg $end
$upscope $end
$scope module sink $end
$var wire 1 1 clk $end
$var wire 64 j msg [63:0] $end
$var wire 1 3 reset $end
$var wire 1 A val $end
$var wire 1 k sink_val $end
$var wire 1 l sink_rdy $end
$var wire 64 m sink_msg [63:0] $end
$var wire 1 B rdy $end
$var wire 1 D done $end
$var parameter 32 n p_max_delay $end
$var parameter 32 o p_mem_sz $end
$var parameter 32 p p_msg_sz $end
$scope module rand_delay $end
$var wire 1 1 clk $end
$var wire 64 q in_msg [63:0] $end
$var wire 1 A in_val $end
$var wire 64 r out_msg [63:0] $end
$var wire 1 3 reset $end
$var wire 1 s zero_cycle_delay $end
$var wire 32 t rand_delay [31:0] $end
$var wire 1 l out_rdy $end
$var parameter 1 u c_state_delay $end
$var parameter 1 v c_state_idle $end
$var parameter 32 w c_state_sz $end
$var parameter 32 x p_max_delay $end
$var parameter 32 y p_msg_sz $end
$var reg 1 B in_rdy $end
$var reg 1 k out_val $end
$var reg 1 z rand_delay_en $end
$var reg 32 { rand_delay_next [31:0] $end
$var reg 32 | rand_num [31:0] $end
$var reg 1 } state $end
$var reg 1 ~ state_next $end
$scope begin genblk1 $end
$upscope $end
$scope module rand_delay_pf $end
$var wire 1 1 clk $end
$var wire 32 !" d_p [31:0] $end
$var wire 1 z en_p $end
$var wire 1 3 reset_p $end
$var parameter 32 "" RESET_VALUE $end
$var parameter 32 #" W $end
$var reg 32 $" q_np [31:0] $end
$upscope $end
$upscope $end
$scope module sink $end
$var wire 1 1 clk $end
$var wire 1 %" go $end
$var wire 1 &" index_en $end
$var wire 64 '" msg [63:0] $end
$var wire 1 3 reset $end
$var wire 1 k val $end
$var wire 1 l rdy $end
$var wire 10 (" index_next [9:0] $end
$var wire 10 )" index [9:0] $end
$var wire 1 D done $end
$var parameter 32 *" c_physical_addr_sz $end
$var parameter 32 +" p_mem_sz $end
$var parameter 32 ," p_msg_sz $end
$var reg 2 -" verbose [1:0] $end
$scope module index_pf $end
$var wire 1 1 clk $end
$var wire 10 ." d_p [9:0] $end
$var wire 1 &" en_p $end
$var wire 1 3 reset_p $end
$var parameter 10 /" RESET_VALUE $end
$var parameter 32 0" W $end
$var reg 10 1" q_np [9:0] $end
$upscope $end
$upscope $end
$upscope $end
$scope module src $end
$var wire 1 1 clk $end
$var wire 1 ; rdy $end
$var wire 1 3 reset $end
$var wire 1 : val $end
$var wire 1 2" src_val $end
$var wire 1 3" src_rdy $end
$var wire 67 4" src_msg [66:0] $end
$var wire 67 5" msg [66:0] $end
$var wire 1 @ done $end
$var parameter 32 6" p_max_delay $end
$var parameter 32 7" p_mem_sz $end
$var parameter 32 8" p_msg_sz $end
$scope module rand_delay $end
$var wire 1 1 clk $end
$var wire 67 9" out_msg [66:0] $end
$var wire 1 ; out_rdy $end
$var wire 1 3 reset $end
$var wire 1 :" zero_cycle_delay $end
$var wire 32 ;" rand_delay [31:0] $end
$var wire 1 2" in_val $end
$var wire 67 <" in_msg [66:0] $end
$var parameter 1 =" c_state_delay $end
$var parameter 1 >" c_state_idle $end
$var parameter 32 ?" c_state_sz $end
$var parameter 32 @" p_max_delay $end
$var parameter 32 A" p_msg_sz $end
$var reg 1 3" in_rdy $end
$var reg 1 : out_val $end
$var reg 1 B" rand_delay_en $end
$var reg 32 C" rand_delay_next [31:0] $end
$var reg 32 D" rand_num [31:0] $end
$var reg 1 E" state $end
$var reg 1 F" state_next $end
$scope begin genblk1 $end
$upscope $end
$scope module rand_delay_pf $end
$var wire 1 1 clk $end
$var wire 32 G" d_p [31:0] $end
$var wire 1 B" en_p $end
$var wire 1 3 reset_p $end
$var parameter 32 H" RESET_VALUE $end
$var parameter 32 I" W $end
$var reg 32 J" q_np [31:0] $end
$upscope $end
$upscope $end
$scope module src $end
$var wire 1 1 clk $end
$var wire 1 K" go $end
$var wire 1 L" index_en $end
$var wire 67 M" msg [66:0] $end
$var wire 1 3" rdy $end
$var wire 1 3 reset $end
$var wire 1 2" val $end
$var wire 10 N" index_next [9:0] $end
$var wire 10 O" index [9:0] $end
$var wire 1 @ done $end
$var parameter 32 P" c_physical_addr_sz $end
$var parameter 32 Q" p_mem_sz $end
$var parameter 32 R" p_msg_sz $end
$scope module index_pf $end
$var wire 1 1 clk $end
$var wire 10 S" d_p [9:0] $end
$var wire 1 L" en_p $end
$var wire 1 3 reset_p $end
$var parameter 10 T" RESET_VALUE $end
$var parameter 32 U" W $end
$var reg 10 V" q_np [9:0] $end
$upscope $end
$upscope $end
$upscope $end
$upscope $end
$upscope $end
$scope module vc_DFF_nf $end
$var wire 1 W" clk $end
$var wire 1 X" d_p $end
$var parameter 32 Y" W $end
$var reg 1 Z" q_np $end
$upscope $end
$scope module vc_DFF_pf $end
$var wire 1 [" clk $end
$var wire 1 \" d_p $end
$var parameter 32 ]" W $end
$var reg 1 ^" q_np $end
$upscope $end
$scope module vc_EDFF_nf $end
$var wire 1 _" clk $end
$var wire 1 `" d_n $end
$var wire 1 a" en_n $end
$var parameter 32 b" W $end
$var reg 1 c" q_pn $end
$upscope $end
$scope module vc_EDFF_pf $end
$var wire 1 d" clk $end
$var wire 1 e" d_p $end
$var wire 1 f" en_p $end
$var parameter 32 g" W $end
$var reg 1 h" q_np $end
$upscope $end
$scope module vc_ELatch_hl $end
$var wire 1 i" clk $end
$var wire 1 j" d_n $end
$var wire 1 k" en_p $end
$var parameter 32 l" W $end
$var reg 1 m" en_latched_pn $end
$var reg 1 n" q_np $end
$upscope $end
$scope module vc_ELatch_ll $end
$var wire 1 o" clk $end
$var wire 1 p" d_p $end
$var wire 1 q" en_n $end
$var parameter 32 r" W $end
$var reg 1 s" en_latched_np $end
$var reg 1 t" q_pn $end
$upscope $end
$scope module vc_Latch_hl $end
$var wire 1 u" clk $end
$var wire 1 v" d_n $end
$var parameter 32 w" W $end
$var reg 1 x" q_np $end
$upscope $end
$scope module vc_Latch_ll $end
$var wire 1 y" clk $end
$var wire 1 z" d_p $end
$var parameter 32 {" W $end
$var reg 1 |" q_pn $end
$upscope $end
$scope module vc_RDFF_pf $end
$var wire 1 }" clk $end
$var wire 1 ~" d_p $end
$var wire 1 !# reset_p $end
$var parameter 32 "# RESET_VALUE $end
$var parameter 32 ## W $end
$var reg 1 $# q_np $end
$upscope $end
$enddefinitions $end
$comment Show the parameter values. $end
$dumpall
b1 ##
b0 "#
b1 {"
b1 w"
b1 r"
b1 l"
b1 g"
b1 b"
b1 ]"
b1 Y"
b1010 U"
b0 T"
b1000011 R"
b10000000000 Q"
b1010 P"
b100000 I"
b0 H"
b1000011 A"
b11 @"
b1 ?"
0>"
1="
b1000011 8"
b10000000000 7"
b11 6"
b1010 0"
b0 /"
b1000000 ,"
b10000000000 +"
b1010 *"
b100000 #"
b0 ""
b1000000 y
b11 x
b1 w
0v
1u
b1000000 p
b10000000000 o
b11 n
b100 -
b11 ,
b0 +
b10 *
b1 )
$end
#0
$dumpvars
x$#
z!#
z~"
z}"
x|"
zz"
zy"
xx"
zv"
zu"
xt"
xs"
zq"
zp"
zo"
xn"
xm"
zk"
zj"
zi"
xh"
zf"
ze"
zd"
xc"
za"
z`"
z_"
x^"
z\"
z["
xZ"
zX"
zW"
b0 V"
b1 S"
b0 O"
b1 N"
bx M"
0L"
0K"
b0 J"
b0 G"
0F"
0E"
b0 D"
b0 C"
0B"
bx <"
b0 ;"
0:"
bx 9"
bx 5"
bx 4"
13"
02"
b0 1"
b1 ."
b10 -"
b0 )"
b1 ("
b0 '"
0&"
0%"
b0 $"
b1 !"
0~
0}
b10 |
b1 {
0z
b0 t
0s
b0 r
b0 q
b0 m
0l
0k
b0 j
0i
0h
0g
0f
b0 e
b0 d
b0 c
b0 b
b0 a
b0 `
b0 _
b0 ^
b0 ]
b0 \
b0 [
b0 Z
b0 Y
b0 X
bx W
bx V
bx U
bx T
bx S
bx R
b0 Q
0P
0O
0N
0M
bx L
bx K
bx J
0I
bx H
bx G
bx F
bx E
1D
b0 C
0B
0A
1@
bx ?
bx >
bx =
bx <
1;
0:
09
08
07
06
b10 5
b0 4
13
b0 2
11
10
b11111100111111 /
b111010101101110011001000110010101100110011010010110111001100101011001000010000001100110011101010110111001100011 .
bz (
bz '
bz &
bz %
bz $
bz #
bz "
bz !
$end
#5
01
#10
03"
b1 D"
11
#15
01
#20
b1 C"
b1 G"
b0 {
b0 !"
b10 D"
b0 |
11
#25
01
#30
b1 |
11
#35
01
#40
b0 C"
b0 G"
b1 D"
b0 |
11
#45
01
#50
b1 {
b1 !"
13"
b10 |
b0 D"
11
#55
01
#60
03"
b0 {
b0 !"
b1 D"
b0 |
11
#65
01
#70
11
#75
01
#80
13"
b0 D"
b1 |
11
#85
01
#90
b0 |
11
#95
01
#100
1:"
1I
1L"
1K"
1:
0B"
0F"
00
b0 =
b0 G
b0 K
b0 >
b0 H
b0 J
b0 <
b0 E
b0 L
b1 {
b1 !"
1l
0D
12"
0@
b0 ?
b0 F
b0 5"
b0 9"
b0 4"
b0 <"
b0 M"
b10 |
b1 4
11
b1 2
#105
01
#110
1B
b0 {
b0 !"
b0 |
11
#115
01
#120
0I
0L"
0K"
1F"
0:
03"
1B"
0:"
0B
b1 D"
b1 |
11
#125
01
03
#130
1I
1L"
1K"
b1 {
b1 !"
0F"
1:
13"
b11111111111111111111111111111111 C"
b11111111111111111111111111111111 G"
0B"
b10 |
1E"
b10 D"
11
#135
01
#140
0I
0L"
0K"
b1 =
b1 G
b1 K
b1 >
b1 H
b1 J
0:
03"
b0 C"
b0 G"
1B"
1F"
1P
b0 {
b0 !"
b10 N"
b10 S"
b100000000000000000000000000000001 ?
b100000000000000000000000000000001 F
b100000000000000000000000000000001 5"
b100000000000000000000000000000001 9"
b100000000000000000000000000000001 4"
b100000000000000000000000000000001 <"
b100000000000000000000000000000001 M"
b1 O"
b1 V"
b1 D"
0E"
1f
b1 |
11
#145
01
#150
1I
1L"
1K"
1O
0P
1:
13"
b11111111111111111111111111111111 C"
b11111111111111111111111111111111 G"
0B"
0F"
1g
0f
1E"
11
#155
01
#160
b1 Q
0I
0L"
0K"
b1 \
b1 W
b0 T
b1 Z
b11111111111111111111111111111111 >
b11111111111111111111111111111111 H
b11111111111111111111111111111111 J
0:
03"
b0 C"
b0 G"
1B"
1F"
0O
1P
b1 [
b1 V
b0 S
b1 ^
b1 Y
b1 _
b1 {
b1 !"
b11 N"
b11 S"
b1111111111111111111111111111111100000000000000000000000000000001 ?
b1111111111111111111111111111111100000000000000000000000000000001 F
b1111111111111111111111111111111100000000000000000000000000000001 5"
b1111111111111111111111111111111100000000000000000000000000000001 9"
b1111111111111111111111111111111100000000000000000000000000000001 4"
b1111111111111111111111111111111100000000000000000000000000000001 <"
b1111111111111111111111111111111100000000000000000000000000000001 M"
b10 O"
b10 V"
0E"
1h
0g
1f
b1 U
b0 R
b1 X
b1 a
b1 `
b10 |
11
#165
01
#170
1&"
1%"
1I
1L"
1K"
1s
1k
1B
b0 {
b0 !"
0z
0~
06
09
1O
0P
0F"
1:
13"
b11111111111111111111111111111111 C"
b11111111111111111111111111111111 G"
0B"
1:"
b0 |
1A
1i
0h
1g
b1 c
0f
1E"
b0 D"
11
#175
01
#180
b1111111111111111111111111111111111111111111111111111111111111111 Q
0s
0&"
0%"
1M
b1111111111111111111111111111111111111111111111111111111111111111 \
b11111111111111111111111111111111 W
b1111111111111111111111111111111111111111111111111111111111111111 Z
b11111111111111111111111111111111 =
b11111111111111111111111111111111 G
b11111111111111111111111111111111 K
b1 >
b1 H
b1 J
b0 C"
b0 G"
0k
0O
1P
b1 Y
b1 [
b1 V
b1 _
b100 N"
b100 S"
b111111111111111111111111111111111 ?
b111111111111111111111111111111111 F
b111111111111111111111111111111111 5"
b111111111111111111111111111111111 9"
b111111111111111111111111111111111 4"
b111111111111111111111111111111111 <"
b111111111111111111111111111111111 M"
b11 O"
b11 V"
0E"
0A
0i
1h
b1 d
0g
1f
b11111111111111111111111111111111 U
b11111111111111111111111111111111 X
b11111111111111111111111111111111 `
b10 ("
b10 ."
b1 )"
b1 1"
11
#185
01
#190
b1111111111111111111111111111111111111111111111111111111111111111 Q
b1111111111111111111111111111111111111111111111111111111111111111 \
1s
1&"
1%"
b11111111111111111111111111111111 Z
b1 _
0I
0L"
0K"
1F"
1k
0z
0~
1O
b1 [
b1 V
b0 S
b1 ^
0:
03"
1B"
0:"
b11111111111111111111111111111111 >
b11111111111111111111111111111111 H
b11111111111111111111111111111111 J
1A
1i
0h
b1 m
b1 r
b1 '"
b1 C
b1 ]
b1 e
b1 j
b1 q
1g
b1111111111111111111111111111111111111111111111111111111111111111 c
b1 R
b11111111111111111111111111111111 Y
b11111111111111111111111111111111 a
b0 U
b11111111111111111111111111111111 X
b1 `
b1 D"
b101 N"
b101 S"
b1111111111111111111111111111111111111111111111111111111111111111 ?
b1111111111111111111111111111111111111111111111111111111111111111 F
b1111111111111111111111111111111111111111111111111111111111111111 5"
b1111111111111111111111111111111111111111111111111111111111111111 9"
b1111111111111111111111111111111111111111111111111111111111111111 4"
b1111111111111111111111111111111111111111111111111111111111111111 <"
b1111111111111111111111111111111111111111111111111111111111111111 M"
b100 O"
b100 V"
11
#195
01
#200
1I
1L"
1K"
0s
0&"
0%"
1:
13"
b11111111111111111111111111111111 C"
b11111111111111111111111111111111 G"
0B"
0F"
0k
0P
1E"
0A
0i
1h
b1111111111111111111111111111111111111111111111111111111111111111 d
0f
b11 ("
b11 ."
b10 )"
b10 1"
11
#205
01
#210
b1 W
b1 Q
b1 \
1s
1&"
1%"
0M
b1111111111111111111111111111111100000000000000000000000000000001 Z
1k
0z
0~
0O
1P
b11111111111111111111111111111111 Y
b1 [
b1 V
b1 _
b0 C"
b0 G"
1:"
b11 =
b11 G
b11 K
b1000 >
b1000 H
b1000 J
1A
1i
b1111111111111111111111111111111111111111111111111111111111111111 m
b1111111111111111111111111111111111111111111111111111111111111111 r
b1111111111111111111111111111111111111111111111111111111111111111 '"
b1111111111111111111111111111111111111111111111111111111111111111 C
b1111111111111111111111111111111111111111111111111111111111111111 ]
b1111111111111111111111111111111111111111111111111111111111111111 e
b1111111111111111111111111111111111111111111111111111111111111111 j
b1111111111111111111111111111111111111111111111111111111111111111 q
0g
1f
b1 U
b0 R
b1111111111111111111111111111111000000000000000000000000000000001 X
b11111111111111111111111111111111 `
0E"
b0 D"
b110 N"
b110 S"
b100000000000000000000000000000000011 ?
b100000000000000000000000000000000011 F
b100000000000000000000000000000000011 5"
b100000000000000000000000000000000011 9"
b100000000000000000000000000000000011 4"
b100000000000000000000000000000000011 <"
b100000000000000000000000000000000011 M"
b101 O"
b101 V"
11
#215
01
#220
b11000 Q
b10 T
b11000 \
b10 W
0I
0L"
0K"
1F"
b10 S
b11 ^
b11000 Z
b11000 [
b10 V
b1000 _
b1000 =
b1000 G
b1000 K
b11111111111111111111111111111000 >
b11111111111111111111111111111000 H
b11111111111111111111111111111000 J
0:
03"
b1 C"
b1 G"
1B"
0:"
1O
b111 N"
b111 S"
b1111111111111111111111111111100000000000000000000000000000001000 ?
b1111111111111111111111111111100000000000000000000000000000001000 F
b1111111111111111111111111111100000000000000000000000000000001000 5"
b1111111111111111111111111111100000000000000000000000000000001000 9"
b1111111111111111111111111111100000000000000000000000000000001000 4"
b1111111111111111111111111111100000000000000000000000000000001000 <"
b1111111111111111111111111111100000000000000000000000000000001000 M"
b110 O"
b110 V"
b10 D"
0h
1g
b1 c
b11000 Y
b11 a
b10 U
b10 R
b11000 X
b1000 `
b100 ("
b100 ."
b11 )"
b11 1"
11
#225
01
#230
0&"
0%"
0s
0k
0B
b1 {
b1 !"
0P
b0 C"
b0 G"
b101 ("
b101 ."
b100 )"
b100 1"
b10 |
0A
0i
1h
b1 d
b11000 c
0f
1E"
b1 ;"
b1 J"
11
#235
01
#240
1:
b11111111111111111111111111111111 C"
b11111111111111111111111111111111 G"
0B"
0;
1N
1~
16
19
0O
b0 {
b0 !"
1z
b1 D"
b0 ;"
b0 J"
1A
1i
b1 m
b1 r
b1 '"
b1 C
b1 ]
b1 e
b1 j
b1 q
b11000 d
0g
b1 |
11
#245
01
#250
1L"
1K"
1I
13"
0F"
1&"
1%"
1;
0N
06
09
0~
1k
1B
b11111111111111111111111111111111 {
b11111111111111111111111111111111 !"
0z
1}
b10 |
b10 D"
11
#255
01
#260
0L"
0K"
b1111111111111111111111111111111111111111111111111111111111000000 Q
0I
03"
1M
b1111111111111111111111111111111111111111111111111111111111000000 \
b11111111111111111111111111111111 W
b0 T
0&"
0%"
0;
1N
16
19
b11111111111111111111111111111000 =
b11111111111111111111111111111000 G
b11111111111111111111111111111000 K
0:"
b0 C"
b0 G"
1B"
1F"
0P
b0 S
b1000 ^
b1111111111111111111111111111111111111111111111111111111111000000 Z
b1000000 [
b1 V
b1000 _
0k
0B
b0 {
b0 !"
1z
1~
b1000 N"
b1000 S"
b1111111111111111111111111111100011111111111111111111111111111000 ?
b1111111111111111111111111111100011111111111111111111111111111000 F
b1111111111111111111111111111100011111111111111111111111111111000 5"
b1111111111111111111111111111100011111111111111111111111111111000 9"
b1111111111111111111111111111100011111111111111111111111111111000 4"
b1111111111111111111111111111100011111111111111111111111111111000 <"
b1111111111111111111111111111100011111111111111111111111111111000 M"
b111 O"
b111 V"
b0 D"
0E"
0h
b11000 m
b11000 r
b11000 '"
b11000 C
b11000 ]
b11000 e
b11000 j
b11000 q
1f
b0 R
b1000000 Y
b1000 a
b11111111111111111111111111111 U
b11111111111111111111111111111000000 X
b11111111111111111111111111111000 `
b1 |
0}
b110 ("
b110 ."
b101 )"
b101 1"
11
#265
01
#270
1L"
1K"
1I
13"
0F"
1P
1&"
1%"
1;
0N
06
09
0~
1k
1B
b11111111111111111111111111111111 {
b11111111111111111111111111111111 !"
0z
1s
b11111111111111111111111111111111 C"
b11111111111111111111111111111111 G"
0B"
1}
b0 |
1E"
b10 D"
11
#275
01
#280
b1000000 Q
b1000000 \
b1 W
b0 T
0I
0L"
0K"
0M
b1111111111111111111111111111100000000000000000000000000001000000 Z
0&"
0%"
b10000000000000000000000000000 =
b10000000000000000000000000000 G
b10000000000000000000000000000 K
b1101111010101101101111101110 >
b1101111010101101101111101110 H
b1101111010101101101111101110 J
0:
03"
b0 C"
b0 G"
1B"
1F"
1O
b1000000 [
b1 V
b0 S
b1000 ^
0s
0k
0B
b0 {
b0 !"
b1001 N"
b1001 S"
b110111101010110110111110111000010000000000000000000000000000 ?
b110111101010110110111110111000010000000000000000000000000000 F
b110111101010110110111110111000010000000000000000000000000000 5"
b110111101010110110111110111000010000000000000000000000000000 9"
b110111101010110110111110111000010000000000000000000000000000 4"
b110111101010110110111110111000010000000000000000000000000000 <"
b110111101010110110111110111000010000000000000000000000000000 M"
b1000 O"
b1000 V"
b1 D"
0E"
0A
0i
1g
b1111111111111111111111111111111111111111111111111111111111000000 c
b1 U
b1111111111111111111111111111000000000000000000000000000001000000 X
b11111111111111111111111111111000000 Y
b11111111111111111111111111111000 a
b1 |
0}
b111 ("
b111 ."
b110 )"
b110 1"
11
#285
01
#290
1I
1L"
1K"
0P
0F"
1:
13"
b11111111111111111111111111111111 C"
b11111111111111111111111111111111 G"
0B"
1:"
1h
b1111111111111111111111111111111111111111111111111111111111000000 d
b1000000 c
0f
1E"
b0 D"
11
#295
01
#300
b0 W
b11011110101011011011111011100000000000000000000000000000 Q
b11011110101011011011111011100000000000000000000000000000 \
1B"
1F"
0L"
0K"
0I
b10000000000000000000000000000 ^
b11011110101011011011111011100000000000000000000000000000 Z
b1101111010101101101111101110 T
b11011110101011011011111011100000000000000000000000000000 [
b0 V
b1101111010101101101111101110 S
b1101111010101101101111101110 _
b11011110101011011011111011101111 >
b11011110101011011011111011101111 H
b11011110101011011011111011101111 J
0:"
0:
03"
b1 C"
b1 G"
0;
1N
1z
1~
16
19
0O
0P
b1010 N"
b1010 S"
b1101111010101101101111101110111100010000000000000000000000000000 ?
b1101111010101101101111101110111100010000000000000000000000000000 F
b1101111010101101101111101110111100010000000000000000000000000000 5"
b1101111010101101101111101110111100010000000000000000000000000000 9"
b1101111010101101101111101110111100010000000000000000000000000000 4"
b1101111010101101101111101110111100010000000000000000000000000000 <"
b1101111010101101101111101110111100010000000000000000000000000000 M"
b1001 O"
b1001 V"
b10 D"
0E"
1A
1i
b1111111111111111111111111111111111111111111111111111111111000000 m
b1111111111111111111111111111111111111111111111111111111111000000 r
b1111111111111111111111111111111111111111111111111111111111000000 '"
b1111111111111111111111111111111111111111111111111111111111000000 C
b1111111111111111111111111111111111111111111111111111111111000000 ]
b1111111111111111111111111111111111111111111111111111111111000000 e
b1111111111111111111111111111111111111111111111111111111111000000 j
b1111111111111111111111111111111111111111111111111111111111000000 q
b1000000 d
0g
1f
b11011110101011011011111011100000000000000000000000000000 Y
b10000000000000000000000000000 a
b0 U
b1101111010101101101111101110 R
b11011110101011011011111011100000000000000000000000000000 X
b1101111010101101101111101110 `
11
#305
01
#310
1:"
1P
1&"
1%"
1;
0N
06
09
0~
1k
1B
b11111111111111111111111111111111 {
b11111111111111111111111111111111 !"
0z
b0 C"
b0 G"
1}
b10 |
1E"
b1 ;"
b1 J"
b0 D"
11
#315
01
#320
0L"
0K"
0&"
0%"
0;
1N
16
19
0:"
1F"
1:
03"
b11111111111111111111111111111111 C"
b11111111111111111111111111111111 G"
0B"
0O
0P
0k
0B
b1 {
b1 !"
1z
1~
b1 D"
b0 ;"
b0 J"
0h
b1000000 m
b1000000 r
b1000000 '"
b1000000 C
b1000000 ]
b1000000 e
b1000000 j
b1000000 q
1g
b11011110101011011011111011100000000000000000000000000000 c
0f
0}
b1000 ("
b1000 ."
b111 )"
b111 1"
11
#325
01
#330
b0 {
b0 !"
1s
1}
b1 t
b1 $"
b0 |
b0 D"
11
#335
01
#340
1:"
1L"
1K"
1I
13"
0F"
1O
1&"
1%"
1;
0N
06
09
0~
1k
1B
b11111111111111111111111111111111 {
b11111111111111111111111111111111 !"
0z
b0 t
b0 $"
11
#345
01
#350
b1111110111101010110110111110111011110000000000000000000000000000 Q
0&"
0%"
1M
b1111110111101010110110111110111011110000000000000000000000000000 \
b11111111111111111111111111111110 W
b1111110111101010110110111110111011110000000000000000000000000000 Z
b11111110101011011011111011101111 T
0I
0s
0k
0B
b0 {
b0 !"
0O
1P
b1000010101001001000001000100010000000000000000000000000000 Y
b1000010101001001000001000100010000000000000000000000000000 [
b10 V
b1010100100100000100010001 S
b100001010100100100000100010001 _
0:"
bx =
bx G
bx K
bx >
bx H
bx J
bx <
bx E
bx L
0L"
0K"
0:
03"
b0 C"
b0 G"
b1001 ("
b1001 ."
b1000 )"
b1000 1"
0}
b1 |
0A
0i
1h
b11011110101011011011111011100000000000000000000000000000 d
0g
1f
b1101 U
b1110101011011011111011101111 R
b110111101010110110111110111011110000000000000000000000000000 X
b11011110101011011011111011101111 `
0E"
b1 D"
b1011 N"
b1011 S"
bx ?
bx F
bx 5"
bx 9"
bx 4"
bx <"
bx M"
02"
1@
b1010 O"
b1010 V"
11
#355
01
#360
1s
1&"
1%"
0~
1O
0P
1k
1B
0z
1A
1i
0h
b11011110101011011011111011100000000000000000000000000000 m
b11011110101011011011111011100000000000000000000000000000 r
b11011110101011011011111011100000000000000000000000000000 '"
b11011110101011011011111011100000000000000000000000000000 C
b11011110101011011011111011100000000000000000000000000000 ]
b11011110101011011011111011100000000000000000000000000000 e
b11011110101011011011111011100000000000000000000000000000 j
b11011110101011011011111011100000000000000000000000000000 q
1g
b1111110111101010110110111110111011110000000000000000000000000000 c
0f
b0 |
11
#365
01
#370
0&"
0%"
0s
0k
0B
b1 {
b1 !"
0O
b1010 ("
b1010 ."
b1001 )"
b1001 1"
b10 |
0A
0i
1h
b1111110111101010110110111110111011110000000000000000000000000000 d
0g
11
#375
01
#380
0;
1N
1z
1~
16
19
1A
1i
0h
b1111110111101010110110111110111011110000000000000000000000000000 m
b1111110111101010110110111110111011110000000000000000000000000000 r
b1111110111101010110110111110111011110000000000000000000000000000 '"
b1111110111101010110110111110111011110000000000000000000000000000 C
b1111110111101010110110111110111011110000000000000000000000000000 ]
b1111110111101010110110111110111011110000000000000000000000000000 e
b1111110111101010110110111110111011110000000000000000000000000000 j
b1111110111101010110110111110111011110000000000000000000000000000 q
11
#385
01
#390
b0 {
b0 !"
1}
b1 t
b1 $"
b0 D"
11
#395
01
#400
1&"
1%"
1;
0N
06
09
b1 C"
b1 G"
0~
1k
1B
b11111111111111111111111111111111 {
b11111111111111111111111111111111 !"
0z
b10 D"
b0 t
b0 $"
11
#405
01
#410
0%"
0&"
10
0k
0B
b0 {
b0 !"
b1011 ("
b1011 ."
0l
1D
b1010 )"
b1010 1"
0}
b0 |
0A
0i
11
#415
01
#420
b0 C"
b0 G"
b1 {
b1 !"
b1 D"
b10 |
11
#425
01
#430
b0 {
b0 !"
b1 C"
b1 G"
b0 |
b10 D"
11
#435
01
#440
13"
b0 C"
b0 G"
b0 D"
11
#445
01
#450
03"
b1 D"
11
#455
01
#460
11
#465
01
#470
b1 {
b1 !"
b1 C"
b1 G"
b10 |
b10 D"
11
#475
01
#480
b0 C"
b0 G"
b0 {
b0 !"
b1 D"
b0 |
11
#485
01
#490
b1 {
b1 !"
b10 |
11
#495
01
#500
b1 C"
b1 G"
b10 D"
11
#505
01
#510
b0 {
b0 !"
b1 |
11
#515
01
#520
b0 C"
b0 G"
b1 D"
b0 |
11
#525
01
#530
11
#535
01
#540
13"
b1 {
b1 !"
b0 D"
b10 |
11
#545
01
#550
b0 {
b0 !"
b1 |
11
#555
01
#560
03"
b1 C"
b1 G"
b10 D"
b0 |
11
#565
01
#570
11
#575
01
#580
b1 |
11
#585
01
#590
b0 C"
b0 G"
b1 D"
11
#595
01
#600
b1 C"
b1 G"
b1 {
b1 !"
b10 D"
b10 |
11
#605
01
#610
b0 C"
b0 G"
b1 D"
11
#615
01
#620
b1 C"
b1 G"
b0 {
b0 !"
b10 D"
b1 |
11
#625
01
#630
13"
b0 C"
b0 G"
b0 D"
11
#635
01
#640
03"
b1 C"
b1 G"
b10 D"
11
#645
01
#650
13"
b0 C"
b0 G"
b0 |
b0 D"
11
#655
01
#660
03"
b1 C"
b1 G"
b1 {
b1 !"
b10 D"
b10 |
11
#665
01
